,penalty,C,auc
0,l2,0.1,0.6342072175129361
1,l2,0.5,0.7304159342225528
2,l2,1.0,0.7346312247685826
3,l2,5.0,0.7371155454813718
4,l2,10.0,0.732594089451798
5,l2,20.0,0.7331183918165529
6,l2,40.0,0.729625610211124
7,l2,80.0,0.7364320734945038
8,l2,100.0,0.7448171303492773
9,l2,200.0,0.736823218687378
10,l2,300.0,0.7327083179096398
11,l2,400.0,0.7477592551505745
12,l2,500.0,0.7278867813613991
13,l2,700.0,0.739493916257201
14,l2,900.0,0.7465850500009028
15,l2,1000.0,0.7438356200524475
16,l1,0.1,0.5849581386862442
17,l1,0.5,0.6679006269828669
18,l1,1.0,0.7156736647507754
19,l1,5.0,0.7237285590632296
20,l1,10.0,0.7222127612168059
21,l1,20.0,0.723498068549164
22,l1,40.0,0.7207240726575421
23,l1,80.0,0.7173381922349391
24,l1,100.0,0.7224125041890793
25,l1,200.0,0.7284496814013743
26,l1,300.0,0.7273002659658379
27,l1,400.0,0.7425607266734119
28,l1,500.0,0.7390248923572004
29,l1,700.0,0.7434909122115101
30,l1,900.0,0.7412025677596488
31,l1,1000.0,0.7472560573164495
